{
    "schema_version": "v4.0.0",
    "service_name": "order-service",
    "app_config": {
      "GUEST_CANCELLATION_TTL_MINUTES": 30,
      "QUEUE_DELAY_TIME_IN_SEC": 10,
      "REQUEUE_DELAY_TIME": 600,
      "cache": {
        "cachingDisabled": false,
        "db": 4,
        "redisDataDefaultTtlInSecs": 3600
      },
      "consent_sync_delay": 0,
      "elasticsearch": {
        "host": "qa-delm-lb",
        "port": "9200"
      },
      "exchange_service_pol_auth_secret": "JtX2X7My8ogFNPaaZEtsP8KeDcVF3X2Y",
      "fetch_email_from": "billing_info",
      "fraud": {
        "auto_release": {
          "enabled": false,
          "release_time": "8h",
          "strategy": "BusinessHours"
        },
        "backlog_processing_limit": 10,
        "business_hours": {
          "end": 18,
          "start": 9,
          "timezone": "America/New_York"
        },
        "elasticsearch": {
          "host": "qa-delm-lb",
          "index": "ecom-fraud-filter-feed",
          "port": "9200",
          "type": "order_line_item"
        },
        "minimum_match_threshold": "3<80%",
        "result_limit": 10
      },
      "keysAuthSecret": "abc-dummy-xyz",
      "keys_auth_secret": "order-service-global-secret-code",
      "notification": {
        "default_grouping_time": "0s",
        "grouping_delay_time": {
          "cancellation_failed": "15m",
          "cancellation_succeeded": "15m",
          "line_item_shipped": "15m"
        }
      },
      "notificationServiceAuthSecret": "ahb0aijaith8meiw0ox4yeYohnieveem",
      "order_status_callback_url": "http://pol-qa1-nginx/v4/_orders/fulfillment-status",
      "payment_service_appid": "payment-service-pol",
      "payment_service_pol_auth_secret": "FiDBnIkqdOrcbdlacaddgngFafeFhNdk",
      "payment_sync_delay": 180,
      "payment_update_allowed_window": 600,
      "po_submission_remorse_period": 0,
      "postgres": {
        "connection_string_orders": "postgres://ecomdba:ecomdba@qa-pg-03/pol_qa1_ecomorders",
        "pool_size": 10
      },
      "pricing_engine_auth_secret": "FiDBnIkqdOrcbdlacaddgngFafeFhNdk",
      "rabbitmq": {
        "heartbeat": 10,
        "host": "qa-rmq-01",
        "login": "qa_user",
        "messaging": {
          "bindings": {
            "CancelOrderPaymentFailure": [
              "orders.cancel_order_payment_failure_queue"
            ],
            "CancellationFeeds": [
              "orders.cancellation_feeds_queue"
            ],
            "ConsentSync": [
              "orders.consent_sync_queue"
            ],
            "ExchangeSync": [
              "orders.exchange_sync_queue"
            ],
            "ExternalOrderRefundSettlement": [
              "orders.external_order_refund_settlement_queue"
            ],
            "FraudFilters": [
              "orders.new_fraud_filter_queue"
            ],
            "FulfillmentEvents": [
              "orders.fulfillment_events_queue"
            ],
            "InternalSubmitCart": [
              "orders.internal_submit_cart_queue"
            ],
            "NotificationEvents": [
              "orders.notification_events.events_queue"
            ],
            "OrderCoupons": [
              "orders.coupons_queue"
            ],
            "OrderEPP": [
              "orders.epp_queue"
            ],
            "OrderOffers": [
              "orders.offers_queue"
            ],
            "PaymentFailure": [
              "orders.payment_failure_queue"
            ],
            "PaymentSync": [
              "orders.payment_sync_queue"
            ],
            "ShipmentNotifications": [
              "orders.shipment_notification_queue"
            ],
            "SubmitPO": [
              "orders.submit_po_queue"
            ],
            "TrackingOutput": [
              "orders.pol-aftership-track-output"
            ]
          },
          "exchanges": {
            "CancelOrderPaymentFailure": {
              "bindQueue": true,
              "name": "pol.qa1.orders.cancel_order_payment_failure"
            },
            "CancellationFeeds": {
              "bindQueue": false,
              "name": "pol.qa1.dps.bulk_cancellations"
            },
            "CatalogSync": {
              "bindQueue": false,
              "name": "pol.qa1.catalog.sku_sync"
            },
            "ConsentSync": {
              "bindQueue": true,
              "name": "pol.qa1.orders.consent_sync"
            },
            "ExchangeSync": {
              "bindQueue": true,
              "name": "pol.qa1.orders.exchange_sync"
            },
            "FraudFilters": {
              "bindQueue": true,
              "name": "pol.qa1.orders.fraud_filters"
            },
            "FulfillmentEvents": {
              "bindQueue": true,
              "name": "pol.qa1.orders.fulfillment_events"
            },
            "NotificationEvents": {
              "bindQueue": false,
              "name": "pol.qa1.orders.notification_events"
            },
            "OrderCoupons": {
              "bindQueue": true,
              "name": "pol.qa1.orders.coupons"
            },
            "OrderEPP": {
              "bindQueue": true,
              "name": "pol.qa1.orders.epp"
            },
            "OrderOffers": {
              "bindQueue": true,
              "name": "pol.qa1.orders.offers"
            },
            "PaymentFailure": {
              "bindQueue": true,
              "name": "pol.qa1.orders.payment_failure"
            },
            "PaymentSync": {
              "bindQueue": true,
              "name": "pol.qa1.orders.payment_sync"
            },
            "ShipmentNotifications": {
              "bindQueue": true,
              "name": "pol.qa1.orders.shipment_notification"
            },
            "ShipmentTrackingFeeds": {
              "bindQueue": false,
              "name": "pol.qa1.tracking_info"
            },
            "SubmitPO": {
              "bindQueue": true,
              "name": "pol.qa1.orders.submit_po"
            },
            "TrackingInput": {
              "bindQueue": true,
              "name": "pol.qa1.dps.shipment_tracking_input"
            }
          },
          "prefetchCount": 5,
          "prefix": "pol.qa1.",
          "priorityInstances": {
            "host1": {
              "exchanges": {
                "DRSubmitCart": {
                  "bindQueue": true,
                  "name": "orders.dr_submit_cart"
                }
              }
            },
            "host2": {
              "exchanges": {
                "DRSubmitCart": {
                  "bindQueue": true,
                  "name": "orders.dr_submit_cart"
                }
              }
            }
          }
        },
        "password": "vJ7wfMzVbxomPmLaMLkc",
        "port": 5672,
        "protocol": "amqp"
      },
      "rateLimiterOptions": {
        "orders_cancel": {
          "duration": 60,
          "limit": 5
        },
        "orders_guest_search": {
          "duration": 60,
          "limit": 5
        },
        "orders_notification_info": {
          "duration": 60,
          "limit": 3
        },
        "orders_payment": {
          "duration": 60,
          "limit": 3
        },
        "orders_submit": {
          "duration": 600,
          "limit": 10
        }
      },
      "redis": {
        "host": "qa-red-01",
        "maxReconnectWaitTime": 1000,
        "port": "6379",
        "totalRetryTimeInSeconds": 1000
      },
      "requestTimeout": 120000,
      "fetch_address_info_from": "billing_info",
      "samsung_base_url": "https://qashop.samsung.com/pl/web",
      "samsung_my_orders_url": "/my-orders",
      "samsung_order_tracking_url": "/order-track/<order-id>?lineItemId=<line-item-id>",
      "samsung_orders_lookup_url": "/search-orders",
      "tenant_id": "pol",
      "default_currency": "PLN"
    }
  }