{
  "basic_service_configs": [
    {
      "name": "order-service",
      "server": {
        "instances": [
          {
            "label": "public",
            "port": "4910"
          },
          {
            "label": "private",
            "port": "5010"
          }
        ],
        "logging_file_path": "/var/log/services/dev/",
        "worker": {
          "messaging-worker": {
            "http": {
              "port": "5011"
            }
          }
        }
      }
    }
  ],
  "config_db": {
    "database": "ltu_qa1_configs",
    "host": "cockroachdb",
    "port": "26257",
    "ssl": {
      "cert": "/certs/client.ecomdba.crt",
      "key": "/certs/client.ecomdba.key",
      "rejectUnauthorized": false
    },
    "user": "ecomdba"
  },
  "schema_version": "v4.0.0",
  "tenant_id": "LTU",
  "tenant_level_config": {
    "allowed_locales": [
      "lt-lt",
      "en-us"
    ],
    "default_currency": "EUR",
    "default_locale": "lt_LT",
    "service_nginx_base_url": "http://ltu-qa1-nginx"
  }
}