{
  "name": "order-service",
  "server": {
    "instances": [
      {
        "label": "public",
        "port": "4910"
      },
      {
        "label": "private",
        "port": "5010"
      }
    ],
    "logging_file_path": "/var/log/services/dev/",
    "worker": {
      "messaging-worker": {
        "http": {
          "port": "5011"
        }
      }
    }
  }
}