{
  "basic_service_configs": [
    {
      "name": "order-service",
      "server": {
        "instances": [
          {
            "label": "public",
            "port": "4910"
          },
          {
            "label": "private",
            "port": "5010"
          }
        ],
        "logging_file_path": "/var/log/services/dev/",
        "worker": {
          "messaging-worker": {
            "http": {
              "port": "5011"
            }
          }
        }
      }
    }
  ],
  "config_db": {
    "database": "are_configs",
    "host": "prod-cdb-lb",
    "port": "26257",
    "ssl": {
      "cert": "/certs/client.ecomdba_are.crt",
      "key": "/certs/client.ecomdba_are.key",
      "rejectUnauthorized": false
    },
    "user": "ecomdba_are"
  },
  "schema_version": "v4.0.0",
  "tenant_id": "ARE",
  "tenant_level_config": {
    "allowed_locales": [
      "en-ae",
      "ar-ae"
    ],
    "default_locale": "en-ae",
    "default_currency": "AED",
    "service_nginx_base_url": "http://are-prod-nginx"
  }
}