{
    "schema_version": "v4.0.0",
    "service_name": "order-service",
    "app_config": {
      "GUEST_CANCELLATION_TTL_MINUTES": 30,
      "PaymentFailureSyncDelay": 600,
      "QUEUE_DELAY_TIME_IN_SEC": 10,
      "READY_FOR_FULFILLMENT_DELAY_TIME": 7200,
      "REQUEUE_DELAY_TIME": 600,
      "allowed_locales": [
        "zn-cn, en-au"
      ],
      "cache": {
        "cachingDisabled": false,
        "redisDataDefaultTtlInSecs": 3600
      },
      "cancel_order": {
        "disable_O2O": false,
        "disable_OE": false
      },
      "coupon_sync_delay": 0,
      "default_locale": "en-in",
      "elasticsearch": {
        "host": "localhost",
        "port": "9200"
      },
      "epp_redemption_delay": 0,
      "exchange_service_ind_auth_secret": "JtX2X7My8ogFNPaaZEtsP8KeDcVF3X2Y",
      "fraud": {
        "auto_release": {
          "enabled": false,
          "release_time": "8h",
          "strategy": "BusinessHours"
        },
        "backlog_processing_limit": 10,
        "business_hours": {
          "end": 18,
          "start": 9,
          "timezone": "America/New_York"
        },
        "elasticsearch": {
          "host": "localhost",
          "index": "ecom-fraud-filter-feed",
          "port": "9200",
          "type": "order_line_item"
        },
        "minimum_match_threshold": "3<80%",
        "result_limit": 10
      },
      "keysAuthSecret": "abc-dummy-xyz",
      "keys_auth_secret": "order-service-global-secret-code",
      "notification": {
        "default_grouping_time": "0s",
        "grouping_delay_time": {
          "cancellation_failed": "15m",
          "cancellation_succeeded": "15m",
          "line_item_shipped": "15m"
        }
      },
      "notificationServiceAuthSecret": "ahb0aijaith8meiw0ox4yeYohnieveem",
      "offer_redemption_delay": 0,
      "order_status_callback_url": "/v4/_orders/fulfillment-status",
      "partner": {
        "rethinkdb": {
          "db": "EComPartners",
          "host": "localhost",
          "max": 16,
          "min": 4,
          "port": "28015",
          "protocol": "http"
        }
      },
      "payment_max_retry_count": 5,
      "payment_service_appid": "payment-service-ind",
      "payment_service_ind_auth_secret": "FiDBnIkqdOrcbdlacaddgngFafeFhNdk",
      "payment_sync_delay": 1800,
      "payment_update_allowed_window": 28800,
      "po_submission_remorse_period": 1800,
      "postgres": {
        "connection_string_orders": "postgres://ecomdba:test@localhost/ecomorders",
        "pool_size": 10
      },
      "pricing_engine_auth_secret": "FiDBnIkqdOrcbdlacaddgngFafeFhNdk",
      "rabbitmq": {
        "heartbeat": 10,
        "host": "localhost",
        "login": "guest",
        "messaging": {
          "bindings": {
            "CancelOrderPaymentFailure": [
              "orders.cancel_order_payment_failure_queue"
            ],
            "CancellationFeeds": [
              "orders.cancellation_feeds_queue"
            ],
            "ExchangeSync": [
              "orders.exchange_sync_queue"
            ],
            "ExternalOrderRefundSettlement": [
              "orders.external_order_refund_settlement_queue"
            ],
            "FraudFilters": [
              "orders.new_fraud_filter_queue"
            ],
            "FulfillmentEvents": [
              "orders.fulfillment_events_queue"
            ],
            "InternalSubmitCart": [
              "orders.internal_submit_cart_queue"
            ],
            "NotificationEvents": [
              "orders.notification_events.events_queue"
            ],
            "OrderCoupons": [
              "orders.coupons_queue"
            ],
            "OrderEPP": [
              "orders.epp_queue"
            ],
            "OrderOffers": [
              "orders.offers_queue"
            ],
            "PaymentFailure": [
              "orders.payment_failure_queue"
            ],
            "PaymentSync": [
              "orders.payment_sync_queue"
            ],
            "ShipmentNotifications": [
              "orders.shipment_notification_queue"
            ],
            "SubmitPO": [
              "orders.submit_po_queue"
            ],
            "TrackingOutput": [
              "dps.shipment_tracking_output_queue"
            ]
          },
          "exchanges": {
            "CancelOrderPaymentFailure": {
              "bindQueue": true,
              "name": "ind.qa1.orders.cancel_order_payment_failure"
            },
            "CancellationFeeds": {
              "bindQueue": false,
              "name": "ind.qa1.dps.bulk_cancellations"
            },
            "CatalogSync": {
              "bindQueue": false,
              "name": "ind.qa1.catalog.sku_sync"
            },
            "ExchangeSync": {
              "bindQueue": true,
              "name": "ind.qa1.orders.exchange_sync"
            },
            "FraudFilters": {
              "bindQueue": true,
              "name": "ind.qa1.orders.fraud_filters"
            },
            "FulfillmentEvents": {
              "bindQueue": true,
              "name": "ind.qa1.orders.fulfillment_events"
            },
            "NotificationEvents": {
              "bindQueue": false,
              "name": "ind.qa1.orders.notification_events"
            },
            "OrderCoupons": {
              "bindQueue": true,
              "name": "ind.qa1.orders.coupons"
            },
            "OrderEPP": {
              "bindQueue": true,
              "name": "ind.qa1.orders.epp"
            },
            "OrderOffers": {
              "bindQueue": true,
              "name": "ind.qa1.orders.offers"
            },
            "PaymentFailure": {
              "bindQueue": true,
              "name": "ind.qa1.orders.payment_failure"
            },
            "PaymentSync": {
              "bindQueue": true,
              "name": "ind.qa1.orders.payment_sync"
            },
            "ShipmentNotifications": {
              "bindQueue": true,
              "name": "ind.qa1.orders.shipment_notification"
            },
            "ShipmentTrackingFeeds": {
              "bindQueue": false,
              "name": "ind.qa1.tracking_info"
            },
            "SubmitPO": {
              "bindQueue": true,
              "name": "ind.qa1.orders.submit_po"
            },
            "TrackingInput": {
              "bindQueue": true,
              "name": "ind.qa1.orders.shipment_tracking_input"
            },
            "TrackingOutput": {
              "bindQueue": true,
              "name": "ind.qa1.dps.shipment_tracking_output"
            }
          },
          "prefetchCount": 5,
          "prefix": "ind.qa1.",
          "priorityInstances": {
            "host1": {
              "exchanges": {
                "DRSubmitCart": {
                  "bindQueue": true,
                  "name": "orders.dr_submit_cart"
                }
              }
            },
            "host2": {
              "exchanges": {
                "DRSubmitCart": {
                  "bindQueue": true,
                  "name": "orders.dr_submit_cart"
                }
              }
            }
          }
        },
        "password": "guest",
        "port": 5672,
        "protocol": "amqp"
      },
      "rateLimiterOptions": {
        "orders_cancel": {
          "duration": 60,
          "limit": 5
        },
        "orders_guest_search": {
          "duration": 60,
          "limit": 5
        },
        "orders_notification_info": {
          "duration": 60,
          "limit": 3
        },
        "orders_payment": {
          "duration": 60,
          "limit": 3
        },
        "orders_submit": {
          "duration": 600,
          "limit": 10
        }
      },
      "redis": {
        "host": "localhost",
        "maxReconnectWaitTime": 1000,
        "port": "6379",
        "totalRetryTimeInSeconds": 1000
      },
      "requestTimeout": 120000,
      "samsung_base_url": "https://qashop.samsung.com",
      "samsung_my_orders_url": "/in/web/my-orders",
      "samsung_order_payment_url": "/in/web/order-payment/",
      "samsung_order_tracking_url": "/in/web/order-track/<order-id>?lineItemId=<line-item-id>",
      "samsung_orders_lookup_url": "/in/web/search-orders",
      "service_nginx_base_url": "http://ind-qa1.samsung.com",
      "sku_swap": {
        "disable_O2O": false,
        "disable_OE": false
      },
      "tenant_id": "IND",
      "update_shippingInfo": {
        "disable_O2O": false,
        "disable_OE": false
      }
    }
  }