{
  "app_config": {
    "GUEST_CANCELLATION_TTL_MINUTES": 30,
    "QUEUE_DELAY_TIME_IN_SEC": 10,
    "REQUEUE_DELAY_TIME": 10,
    "attachment_type_s3_folders": {
      "refund_invoice": "refund-invoice",
      "return_label": "return-label",
      "vat_invoice": "vat-invoice"
    },
    "cache": {
      "cachingDisabled": false,
      "db": 4,
      "in_memory": {
        "epp_store": {
          "enabled": true,
          "ttl": 300000
        }
      },
      "redisDataDefaultTtlInSecs": 3600,
      "store_details_ttl": 1800
    },
    "channel": {
      "0": {
        "code": "ESTORE",
        "fulfiller": "Samsung",
        "gerp_config": {
          "company_code": "C430",
          "default_doc_type": "YX01",
          "distribution_channel": "10",
          "fi_posting_config": {
            "FI_serial_number_range_max": 840000,
            "FI_serial_number_range_min": 830001,
            "FI_timezone": "Europe/London",
            "advance_received": "21016901",
            "blart": "D0",
            "budget_allocation_business_area": "430A",
            "budget_allocation_cost_center": "C4300062",
            "credit_indicator": "12",
            "currency": "GBP",
            "debit_indicator": "01",
            "employee_number": "5275235",
            "file_ids_list": {
              "file_id": "101",
              "name": "NORMAL ORDER"
            },
            "hkont": "",
            "newko": "1480872",
            "original_business_area": "430A",
            "original_cost_center": "C4300062",
            "payment_gl_config": [
              {
                "hkont": "12415103",
                "newko": "4326288",
                "payment_gateway_name": "paypal"
              },
              {
                "hkont": "12415103",
                "newko": "4326288",
                "payment_gateway_name": "paypal"
              },
              {
                "hkont": "12415103",
                "newko": "8386507",
                "payment_gateway_name": "adyen"
              },
              {
                "hkont": "12415103",
                "newko": "7375323",
                "payment_gateway_name": "cod"
              },
              {
                "hkont": "12415103",
                "newko": "1481359",
                "payment_gateway_name": "deko"
              }
            ],
            "payment_terms": "",
            "profit_center": "AZ",
            "sys_id": "0071"
          },
          "item_unit": "PC",
          "mor": [
            "Samsung"
          ],
          "name": "eStore",
          "pi_zsysno": "SYS1832",
          "pricing_rate_type": "Y500",
          "reject_reason_config": {
            "pcr_customer_request": "P1"
          },
          "sales_org": "4301",
          "send_notification": true,
          "send_pricing_info": true,
          "soft_allocation": true,
          "sold_to_party": {
            "company_name": "eStore",
            "customer_number": "1480872"
          },
          "sor": [
            "Samsung"
          ],
          "storage_locations": [
            {
              "index": 0,
              "is_physical_store": false,
              "plant_description": "plant description",
              "plant_id": "S451",
              "storage_location_description": "storage location description",
              "storage_location_id": "WCOE"
            },
            {
              "index": 1,
              "is_physical_store": false,
              "plant_description": "plant description",
              "plant_id": "S451",
              "storage_location_description": "storage location description",
              "storage_location_id": "WCOA"
            },
            {
              "index": 2,
              "is_physical_store": false,
              "plant_description": "plant description",
              "plant_id": "S451",
              "storage_location_description": "storage location description",
              "storage_location_id": "WCOW"
            }
          ]
        },
        "soft_allocation": true
      },
      "1": {
        "code": "SELFRIDGES",
        "fulfiller": "Samsung",
        "gerp_config": {
          "company_code": "C430",
          "default_doc_type": "YX01",
          "distribution_channel": "10",
          "fi_posting_config": {
            "FI_serial_number_range_max": 840000,
            "FI_serial_number_range_min": 830001,
            "FI_timezone": "Europe/London",
            "advance_received": "21016901",
            "blart": "D0",
            "budget_allocation_business_area": "430A",
            "budget_allocation_cost_center": "C4300062",
            "credit_indicator": "12",
            "currency": "GBP",
            "debit_indicator": "01",
            "employee_number": "5275235",
            "file_ids_list": {
              "file_id": "101",
              "name": "NORMAL ORDER"
            },
            "hkont": "",
            "newko": "1480872",
            "original_business_area": "430A",
            "original_cost_center": "C4300062",
            "payment_gl_config": [
              {
                "hkont": "12415103",
                "newko": "4326288",
                "payment_gateway_name": "pp"
              },
              {
                "hkont": "12415103",
                "newko": "4326288",
                "payment_gateway_name": "ppc"
              },
              {
                "hkont": "12415103",
                "newko": "8386507",
                "payment_gateway_name": "adyen"
              },
              {
                "hkont": "12415103",
                "newko": "8386507",
                "payment_gateway_name": "bt"
              },
              {
                "hkont": "12415103",
                "newko": "7375323",
                "payment_gateway_name": "cod"
              },
              {
                "hkont": "12415103",
                "newko": "1481359",
                "payment_gateway_name": "deko"
              }
            ],
            "payment_terms": "",
            "profit_center": "AZ",
            "sys_id": "0071"
          },
          "pricing_rate_type": "Y500",
          "reject_reason_config": {
            "pcr_customer_request": "P1"
          },
          "sales_org": "4301",
          "sold_to_party": {
            "company_name": "Selfridges",
            "customer_number": "1481384"
          },
          "storage_locations": [
            {
              "index": 0,
              "is_physical_store": false,
              "plant_description": "plant description",
              "plant_id": "S451",
              "storage_location_description": "storage location description",
              "storage_location_id": "WCYS"
            }
          ]
        },
        "mor": [
          "Selfridges"
        ],
        "name": "Selfridges",
        "send_notification": true,
        "send_pricing_info": true,
        "soft_allocation": true,
        "sor": [
          "Selfridges"
        ],
        "split_settings": {
          "min_quantity_reserved": 0,
          "percentage_number_reserved": 0
        },
        "walk_away": true
      },
      "2": {
        "code": "KINGSCROSS",
        "fulfiller": "Samsung",
        "gerp_config": {
          "company_code": "C430",
          "default_doc_type": "YX01",
          "distribution_channel": "10",
          "fi_posting_config": {
            "FI_serial_number_range_max": 840000,
            "FI_serial_number_range_min": 830001,
            "FI_timezone": "Europe/London",
            "advance_received": "21016901",
            "blart": "D0",
            "budget_allocation_business_area": "430A",
            "budget_allocation_cost_center": "C4300062",
            "credit_indicator": "12",
            "currency": "GBP",
            "debit_indicator": "01",
            "employee_number": "5275235",
            "file_ids_list": {
              "file_id": "101",
              "name": "NORMAL ORDER"
            },
            "hkont": "",
            "newko": "1480872",
            "original_business_area": "430A",
            "original_cost_center": "C4300062",
            "payment_gl_config": [
              {
                "hkont": "12415103",
                "newko": "4326288",
                "payment_gateway_name": "pp"
              },
              {
                "hkont": "12415103",
                "newko": "4326288",
                "payment_gateway_name": "ppc"
              },
              {
                "hkont": "12415103",
                "newko": "8386507",
                "payment_gateway_name": "adyen"
              },
              {
                "hkont": "12415103",
                "newko": "8386507",
                "payment_gateway_name": "bt"
              },
              {
                "hkont": "12415103",
                "newko": "7375323",
                "payment_gateway_name": "cod"
              },
              {
                "hkont": "12415103",
                "newko": "1481359",
                "payment_gateway_name": "deko"
              }
            ],
            "payment_terms": "",
            "profit_center": "AZ",
            "sys_id": "0071"
          },
          "pricing_rate_type": "Y500",
          "reject_reason_config": {
            "pcr_customer_request": "P1"
          },
          "sales_org": "4301",
          "sold_to_party": {
            "company_name": "Kings Cross",
            "customer_number": "9233902"
          },
          "storage_locations": [
            {
              "index": 0,
              "is_physical_store": false,
              "plant_description": "plant description",
              "plant_id": "S451",
              "storage_location_description": "storage location description",
              "storage_location_id": "WCBS"
            }
          ],
          "walk_away": true
        },
        "mor": [
          "Samsung"
        ],
        "name": "King Cross",
        "send_notification": true,
        "send_pricing_info": true,
        "soft_allocation": true,
        "sor": [
          "Samsung"
        ],
        "split_settings": {
          "min_quantity_reserved": 0,
          "percentage_number_reserved": 0
        }
      },
      "3": {
        "code": "EXTENDEDAISLE",
        "fulfiller": "Samsung",
        "gerp_config": {
          "company_code": "C430",
          "default_doc_type": "YX01",
          "distribution_channel": "10",
          "fi_posting_config": {
            "FI_serial_number_range_max": 840000,
            "FI_serial_number_range_min": 830001,
            "FI_timezone": "Europe/London",
            "advance_received": "21016901",
            "blart": "D0",
            "budget_allocation_business_area": "430A",
            "budget_allocation_cost_center": "C4300062",
            "credit_indicator": "12",
            "currency": "GBP",
            "debit_indicator": "01",
            "employee_number": "5275235",
            "file_ids_list": {
              "file_id": "101",
              "name": "NORMAL ORDER"
            },
            "hkont": "",
            "newko": "1480872",
            "original_business_area": "430A",
            "original_cost_center": "C4300062",
            "payment_gl_config": [
              {
                "hkont": "12415103",
                "newko": "4326288",
                "payment_gateway_name": "pp"
              },
              {
                "hkont": "12415103",
                "newko": "4326288",
                "payment_gateway_name": "ppc"
              },
              {
                "hkont": "12415103",
                "newko": "8386507",
                "payment_gateway_name": "adyen"
              },
              {
                "hkont": "12415103",
                "newko": "8386507",
                "payment_gateway_name": "bt"
              },
              {
                "hkont": "12415103",
                "newko": "1481359",
                "payment_gateway_name": "deko"
              }
            ],
            "payment_terms": "",
            "profit_center": "AZ",
            "sys_id": "0071"
          },
          "pricing_rate_type": "Y500",
          "reject_reason_config": {
            "pcr_customer_request": "P1"
          },
          "sales_org": "4301",
          "storage_locations": []
        },
        "mor": [
          "Partner"
        ],
        "name": "Extended Aisle",
        "send_notification": true,
        "send_pricing_info": true,
        "soft_allocation": true,
        "sor": [
          "Partner"
        ],
        "split_settings": {
          "min_quantity_reserved": 0,
          "percentage_number_reserved": 0
        }
      },
      "4": {
        "code": "EBAY",
        "fulfiller": "Samsung",
        "gerp_config": {
          "company_code": "C430",
          "default_doc_type": "YX01",
          "distribution_channel": "10",
          "fi_posting_config": {
            "FI_serial_number_range_max": 840000,
            "FI_serial_number_range_min": 830001,
            "FI_timezone": "Europe/London",
            "advance_received": "21016901",
            "blart": "D0",
            "budget_allocation_business_area": "430A",
            "budget_allocation_cost_center": "C4300062",
            "credit_indicator": "12",
            "currency": "GBP",
            "debit_indicator": "01",
            "employee_number": "5275235",
            "file_ids_list": {
              "file_id": "101",
              "name": "NORMAL ORDER"
            },
            "hkont": "",
            "newko": "1480872",
            "original_business_area": "430A",
            "original_cost_center": "C4300062",
            "payment_gl_config": [
              {
                "hkont": "12415103",
                "newko": "4326288",
                "payment_gateway_name": "pp"
              },
              {
                "hkont": "12415103",
                "newko": "4326288",
                "payment_gateway_name": "ppc"
              },
              {
                "hkont": "12415103",
                "newko": "8386507",
                "payment_gateway_name": "adyen"
              },
              {
                "hkont": "12415103",
                "newko": "8386507",
                "payment_gateway_name": "bt"
              },
              {
                "hkont": "12415103",
                "newko": "1481359",
                "payment_gateway_name": "deko"
              }
            ],
            "payment_terms": "",
            "profit_center": "AZ",
            "sys_id": "0071"
          },
          "pricing_rate_type": "Y500",
          "reject_reason_config": {
            "pcr_customer_request": "P1"
          },
          "sales_org": "4301",
          "storage_locations": []
        },
        "mor": [
          "Samsung"
        ],
        "name": "eBay",
        "send_notification": true,
        "send_pricing_info": true,
        "soft_allocation": true,
        "sor": [
          "Samsung"
        ],
        "split_settings": {
          "min_quantity_reserved": 0,
          "percentage_number_reserved": 0
        }
      },
      "5": {
        "code": "AMAZON",
        "fulfiller": "Samsung",
        "gerp_config": {
          "company_code": "C430",
          "default_doc_type": "YX01",
          "distribution_channel": "10",
          "fi_posting_config": {
            "FI_serial_number_range_max": 840000,
            "FI_serial_number_range_min": 830001,
            "FI_timezone": "Europe/London",
            "advance_received": "21016901",
            "blart": "D0",
            "budget_allocation_business_area": "430A",
            "budget_allocation_cost_center": "C4300062",
            "credit_indicator": "12",
            "currency": "GBP",
            "debit_indicator": "01",
            "employee_number": "5275235",
            "file_ids_list": {
              "file_id": "101",
              "name": "NORMAL ORDER"
            },
            "hkont": "",
            "newko": "1480872",
            "original_business_area": "430A",
            "original_cost_center": "C4300062",
            "payment_gl_config": [
              {
                "hkont": "12415103",
                "newko": "4326288",
                "payment_gateway_name": "pp"
              },
              {
                "hkont": "12415103",
                "newko": "4326288",
                "payment_gateway_name": "ppc"
              },
              {
                "hkont": "12415103",
                "newko": "8386507",
                "payment_gateway_name": "adyen"
              },
              {
                "hkont": "12415103",
                "newko": "8386507",
                "payment_gateway_name": "bt"
              },
              {
                "hkont": "12415103",
                "newko": "1481359",
                "payment_gateway_name": "deko"
              }
            ],
            "payment_terms": "",
            "profit_center": "AZ",
            "sys_id": "0071"
          },
          "pricing_rate_type": "Y500",
          "reject_reason_config": {
            "pcr_customer_request": "P1"
          },
          "sales_org": "4301",
          "storage_locations": []
        },
        "mor": [
          "Amazon"
        ],
        "name": "Amazon",
        "send_notification": true,
        "send_pricing_info": true,
        "soft_allocation": true,
        "sor": [
          "Amazon",
          "Samsung"
        ],
        "split_settings": {
          "min_quantity_reserved": 0,
          "percentage_number_reserved": 0
        }
      }
    },
    "channel_store_addresses": {
      "KingsCross": {
        "companyName": "KingsCross",
        "contactPhone": "",
        "country": {
          "isocode": "GB",
          "name": "GB"
        },
        "district": "GB",
        "firstName": "",
        "lastName": "",
        "line1": "Samsung Showcase store, Unit 120, Coal Drops Yard",
        "line2": "GP2",
        "postalCode": "N1C 4DQ",
        "town": "London"
      },
      "Selfridges": {
        "companyName": "Selfridges",
        "contactPhone": "",
        "country": {
          "isocode": "GB",
          "name": "GB"
        },
        "district": "GB",
        "firstName": "",
        "lastName": "",
        "line1": "400 Oxford St, Marylebone",
        "line2": "GP2",
        "postalCode": "W1A 1AB",
        "town": "London"
      }
    },
    "max_replacement_limit": 2,
    "consent_sync_delay": 0,
    "default_currency": "GBP",
    "elasticsearch": {
      "host": "prod-delm-lb",
      "port": "9200"
    },
    "es_attachments_index": "gbr-attachments",
    "es_attachments_type": "attachment",
    "exchange_service_gbr_auth_secret": "JtX2X7My8ogFNPaaZEtsP8KeDcVF3X2Y",
    "features": {
      "attachments": {
        "handler": "orders-route-handler",
        "service": "orders-service"
      },
      "fraud-filter": {
        "handler": "internal-route-handler",
        "manager": "feature-base-manager",
        "service": "internal-orders-service"
      }
    },
    "fetch_address_info_from": "billing_info",
    "fetch_email_from": "shipping_info",
    "filters_search": {
      "elasticsearch": {
        "host": "prod-delm-lb",
        "index": "gbr-order-orders-feed",
        "port": "9200",
        "type": "orders"
      }
    },
    "fraud": {
      "auto_release": {
        "enabled": false,
        "release_time": "8h",
        "strategy": "BusinessHours"
      },
      "backlog_processing_limit": 10,
      "business_hours": {
        "end": 18,
        "start": 9,
        "timezone": "Europe/London"
      },
      "elasticsearch": {
        "host": "prod-delm-lb",
        "index": "ecom-fraud-filter-feed",
        "port": "9200",
        "type": "order_line_item"
      },
      "minimum_match_threshold": "3<80%",
      "result_limit": 10
    },
    "fulfiller": {
      "8": {
        "connection_info": {
          "apis": {
            "check_log": {
              "operation": "FI10351_ZFG_IF_CHECK_LOG_SO",
              "path": "/kr/gerp/stage/FI10351/FIDocumentErrorLog/1.0",
              "wsdl": "../wsdl/GERP_PI_FI10351_FIDocumentErrorLog.wsdl"
            },
            "create_refund_fi_posting": {
              "operation": "FI10005_FileOtherSystem_AO",
              "path": "/kr/gerp/stage/FI10005/SOCreateCancelPosting/1.0",
              "wsdl": "../wsdl/GERP_PI_FI10005_SOCreateCancelPosting.wsdl"
            },
            "posting_status": {
              "operation": "FI01352_CrossCheckDocList_SO",
              "path": "/kr/gerp/stage/FI00338/FIWFStatus/1.0",
              "wsdl": "../wsdl/GERP_PI_FI00338_FIWFStatus.wsdl"
            },
            "service_pack_code_mapping": {
              "operation": "CS01565_CIC_PACK_MASTER_SO",
              "path": "/kr/gerp/stage/CS01565/ServicePackCodeMapping/1.0",
              "wsdl": "../wsdl/GERP_PI_CS01565_ServicePackCodeMapping.wsdl"
            }
          },
          "client_options": {
            "strictSSL": false,
            "timeout": 60000
          },
          "credentials": "e89e9791-e590-3f20-9f47-c1f1ef405247",
          "url": "https://dev.ipaas.samsung.com:444"
        },
        "fi_posting_config": {
          "FI_serial_number_range_max": 840000,
          "FI_serial_number_range_min": 830001,
          "FI_timezone": "Europe/London",
          "advance_received": "21016901",
          "blart": "D0",
          "budget_allocation_business_area": "430A",
          "budget_allocation_cost_center": "C4300062",
          "credit_indicator": "12",
          "currency": "GBP",
          "debit_indicator": "01",
          "employee_number": "4701842",
          "file_ids_list": {
            "file_id": "101",
            "name": "NORMAL ORDER"
          },
          "hkont": "",
          "newko": "1480872",
          "original_business_area": "430A",
          "original_cost_center": "C4300062",
          "payment_gl_config": [
            {
              "hkont": "12415103",
              "newko": "4326288",
              "payment_gateway_name": "paypal"
            },
            {
              "hkont": "12415103",
              "newko": "4326288",
              "payment_gateway_name": "paypal"
            },
            {
              "hkont": "12415103",
              "newko": "8386507",
              "payment_gateway_name": "adyen"
            },
            {
              "hkont": "12415103",
              "newko": "7375323",
              "payment_gateway_name": "cod"
            },
            {
              "hkont": "12415103",
              "newko": "1481359",
              "payment_gateway_name": "deko"
            }
          ],
          "payment_terms": "",
          "profit_center": "AZ",
          "sys_id": "0071",
          "transaction_code": "FBV1",
          "zz_job_cat": "FAA"
        },
        "fulfiller_id": 8,
        "id": 8,
        "if_key": "11111",
        "name": "Gerp",
        "orderCreationMethod": "Async",
        "package_name": "fulfillment-adapter-plugin-gerp",
        "pi_flag": "M",
        "pi_zsysno": "SYS1832",
        "to_currency": "currency",
        "userName": "",
        "vendor_no": "",
        "warranty_config": {
          "basic_warranty_length": 1,
          "basic_warranty_unit": "Y"
        }
      }
    },
    "insurance_config": {
      "credentials": {
        "password": "XKS72IFHW821U8FYSA87ZUHSDS82HF8A",
        "username": "gpv2-dy26a"
      },
      "product_id": "GBRSTG20190109000001",
      "url": "https://stg-eu-api.mobilecare.svc.samsung.com/mc/v3"
    },
    "keysAuthSecret": "abc-dummy-xyz",
    "keys_auth_secret": "order-service-global-secret-code",
    "mail_to_support": "seukshipping2019@gmail.com",
    "mpos_preorder_ready_for_collection_mail_time_in_sec": 86400,
    "notification": {
      "default_grouping_time": "0s",
      "grouping_delay_time": {
        "cancellation_failed": "15m",
        "cancellation_succeeded": "15m",
        "line_item_shipped": "15m"
      }
    },
    "notificationServiceAuthSecret": "ahb0aijaith8meiw0ox4yeYohnieveem",
    "order_status_callback_url": "http://gbr-prod-nginx/v4/_orders/fulfillment-status",
    "payment_service_appid": "payment-service",
    "payment_service_gbr_auth_secret": "FiDBnIkqdOrcbdlacaddgngFafeFhNdk",
    "payment_sync_delay": 180,
    "payment_update_allowed_window": 600,
    "po_submission_remorse_period": 0,
    "postgres": {
      "connection_string_orders": "postgres://ecomdba_gbr:VFsECRi38E@prod-pgb-lb:6432/gbr_ecomorders",
      "pool_size": 10
    },
    "pre_order_release_dates": {},
    "pricing_engine_auth_secret": "FiDBnIkqdOrcbdlacaddgngFafeFhNdk",
    "rabbitmq": {
      "heartbeat": 10,
      "host": "prod-rmq-01",
      "login": "prod_user",
      "messaging": {
        "bindings": {
          "Attachments": [
            "dps.attachments_queue"
          ],
          "CancelOrderPaymentFailure": [
            "orders.cancel_order_payment_failure_queue"
          ],
          "CancellationFeeds": [
            "orders.cancellation_feeds_queue"
          ],
          "ConsentSync": [
            "orders.consent_sync_queue"
          ],
          "DelayNotifications": [
            "orders.delay_notifications_queue"
          ],
          "ExchangeSync": [
            "orders.exchange_sync_queue"
          ],
          "FiPosting": [
            "orders.fi_posting_queue"
          ],
          "FraudCheck": [
            "orders.fraud_check_queue"
          ],
          "FraudFilters": [
            "orders.new_fraud_filter_queue"
          ],
          "FulfillmentEvents": [
            "orders.fulfillment_events_queue"
          ],
          "InsuranceEvents": [
            "orders.insurance_events_queue"
          ],
          "InsuranceEventsFeed": [
            "orders.insurance_events_feed_queue"
          ],
          "NotificationEvents": [
            "orders.notification_events.events_queue"
          ],
          "OrderCoupons": [
            "orders.coupons_queue"
          ],
          "OrderEPP": [
            "orders.epp_queue"
          ],
          "OrderOffers": [
            "orders.offers_queue"
          ],
          "PaymentCapture": [
            "orders.payment_capture_queue"
          ],
          "PaymentFailure": [
            "orders.payment_failure_queue"
          ],
          "PaymentRefund": [
            "orders.payment_refund_queue"
          ],
          "PaymentSync": [
            "orders.payment_sync_queue"
          ],
          "RefundSync": [
            "orders.refund_sync_queue"
          ],
          "SubmitPO": [
            "orders.submit_po_queue"
          ]
        },
        "exchanges": {
          "Attachments": {
            "bindQueue": true,
            "name": "gbr.dps.attachments"
          },
          "CancelOrderPaymentFailure": {
            "bindQueue": true,
            "name": "gbr.orders.cancel_order_payment_failure"
          },
          "CancellationFeeds": {
            "bindQueue": false,
            "name": "gbr.dps.bulk_cancellations"
          },
          "ConsentSync": {
            "bindQueue": true,
            "name": "gbr.orders.consent_sync"
          },
          "DelayNotifications": {
            "bindQueue": true,
            "name": "gbr.orders.delay_notifications"
          },
          "ExchangeSync": {
            "bindQueue": true,
            "name": "gbr.orders.exchange_sync"
          },
          "FiPosting": {
            "bindQueue": true,
            "name": "gbr.orders.fi_posting"
          },
          "FraudCheck": {
            "bindQueue": true,
            "name": "gbr.orders.fraud_check"
          },
          "FraudFilters": {
            "bindQueue": true,
            "name": "gbr.orders.fraud_filters"
          },
          "FulfillmentEvents": {
            "bindQueue": true,
            "name": "gbr.orders.fulfillment_events"
          },
          "InsuranceEvents": {
            "bindQueue": true,
            "name": "gbr.orders.insurance_events"
          },
          "InsuranceEventsFeed": {
            "bindQueue": true,
            "name": "gbr.orders.insurance_events_feed"
          },
          "NotificationEvents": {
            "bindQueue": false,
            "name": "gbr.orders.notification_events"
          },
          "OrderCoupons": {
            "bindQueue": true,
            "name": "gbr.orders.coupons"
          },
          "OrderEPP": {
            "bindQueue": true,
            "name": "gbr.orders.epp"
          },
          "OrderOffers": {
            "bindQueue": true,
            "name": "gbr.orders.offers"
          },
          "PaymentCapture": {
            "bindQueue": true,
            "name": "gbr.orders.payment_capture"
          },
          "PaymentFailure": {
            "bindQueue": true,
            "name": "gbr.orders.payment_failure"
          },
          "PaymentRefund": {
            "bindQueue": true,
            "name": "gbr.orders.payment_refund"
          },
          "PaymentSync": {
            "bindQueue": true,
            "name": "gbr.orders.payment_sync"
          },
          "RefundSync": {
            "bindQueue": true,
            "name": "gbr.orders.refund_sync"
          },
          "SubmitPO": {
            "bindQueue": true,
            "name": "gbr.orders.submit_po"
          }
        },
        "prefetchCount": 1,
        "prefix": "gbr."
      },
      "password": "mvoidVcxRMePH6iFtq9",
      "port": 5672,
      "protocol": "amqp"
    },
    "rateLimiterOptions": {
      "orders_cancel": {
        "duration": 60,
        "limit": 5
      },
      "orders_guest_search": {
        "duration": 60,
        "limit": 5
      },
      "orders_notification_info": {
        "duration": 60,
        "limit": 3
      },
      "orders_payment": {
        "duration": 60,
        "limit": 3
      },
      "orders_submit": {
        "duration": 600,
        "limit": 10
      },
      "replace_order": {
        "duration": 10,
        "limit": 5
      }
    },
    "redis": {
      "db": 3,
      "host": "redis-master",
      "maxReconnectWaitTime": 1000,
      "port": "6379",
      "read": {
        "host": "redis-slave",
        "port": "6379"
      },
      "totalRetryTimeInSeconds": 1,
      "write": {
        "host": "redis-master",
        "port": "6379"
      }
    },
    "replacement_window": "28d",
    "requestTimeout": 120000,
    "requeue_max_retry_count": {
      "FiPosting": 5
    },
    "returns_window": "28d",
    "s3": {
      "access_key_id": "AKIAXTNOP2INOQIAW2NM",
      "bucket_name": "eu-prod-gbr-orders",
      "secret_access_key": "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"
    },
    "samsung_base_url": "https://shopfront.samsung.com",
    "samsung_my_orders_url": "/uk/web/my-orders",
    "samsung_order_tracking_url": "/uk/web/order-track/<order-id>?lineItemId=<line-item-id>",
    "samsung_orders_lookup_url": "/uk/web/search-orders",
    "self_service_replacement_channels": [
      "SELFRIDGES",
      "KINGSCROSS"
    ],
    "tenant_id": "GBR",
    "vat_percentage": 0.2
  },
  "schema_version": "v4.0.0",
  "service_name": "order-service"
}