{
  "schema_version": "v4.0.0",
  "service_name": "order-service",
  "app_config": {
    "GUEST_CANCELLATION_TTL_MINUTES": 30,
    "PaymentFailureSyncDelay": 600,
    "QUEUE_DELAY_TIME_IN_SEC": 10,
    "READY_FOR_FULFILLMENT_DELAY_TIME": 7200,
    "REQUEUE_DELAY_TIME": 600,
    "mpos_preorder_ready_for_collection_mail_time_in_sec": 86400,
    "allowed_locales": [
      "en-uk",
      "en-us"
    ],
    "self_service_replacement_channels":["SELFRIDGES","KINGSCROSS"],
    "features": {
      "fraud-filter": {
        "handler": "internal-route-handler",
        "manager": "feature-base-manager",
        "service": "internal-orders-service"
      },
      "insurance_config": {
        "credentials": {
          "password": "XKS72IFHW821U8FYSA87ZUHSDS82HF8A",
          "username": "gpv2-dy26a"
        },
        "product_id": "GBRSTG20190109000001",
        "url": "https://stg-eu-api.mobilecare.svc.samsung.com/mc/v3"
      },
      "attachments": {
        "handler": "orders-route-handler",
        "service": "orders-service"
      }
    },
    "cache": {
      "cachingDisabled": false,
      "redisDataDefaultTtlInSecs": 3600
    },
    "cancel_order": {
      "disable_O2O": false,
      "disable_OE": false
    },
    "channel_store_addresses":{
      "Selfridges": {
        "firstName": "",
        "lastName": "",
        "companyName": "Selfridges",
        "line1": "400 Oxford St, Marylebone",
        "line2": "GP2",
        "district": "GB",
        "postalCode": "W1A 1AB",
        "country": {
          "isocode": "GB",
          "name": "GB"
        },
        "town": "London",
        "contactPhone": ""
      },
      "KingsCross": {
        "firstName": "",
        "lastName": "",
        "companyName": "KingsCross",
        "line1": "Samsung Showcase store, Unit 120, Coal Drops Yard",
        "line2": "GP2",
        "district": "GB",
        "postalCode": "N1C 4DQ",
        "country": {
          "isocode": "GB",
          "name": "GB"
        },
        "town": "London",
        "contactPhone": ""
      }
    },
    "coupon_sync_delay": 0,
    "default_locale": "en_uk",
    "elasticsearch": {
      "host": "localhost",
      "port": "9200"
    },
    "epp_redemption_delay": 0,
    "exchange_service_gbr_auth_secret": "JtX2X7My8ogFNPaaZEtsP8KeDcVF3X2Y",
    "fraud": {
      "auto_release": {
        "enabled": false,
        "release_time": "8h",
        "strategy": "BusinessHours"
      },
      "backlog_processing_limit": 10,
      "business_hours": {
        "end": 18,
        "start": 9,
        "timezone": "America/New_York"
      },
      "coupon_sync_delay": 0,
      "returns_window":"28d",
      "replacement_window": "28d",
      "max_replacement_limit": 2,
      "default_locale": "en_uk",
      "elasticsearch": {
        "host": "localhost",
        "port": "9200"
      },
      "epp_redemption_delay": 0,
      "exchange_service_gbr_auth_secret": "JtX2X7My8ogFNPaaZEtsP8KeDcVF3X2Y",
      "upgrade_window_period": {
        "unit": "days",
        "value": 60
      },
      "fraud": {
        "auto_release": {
          "enabled": false,
          "release_time": "8h",
          "strategy": "BusinessHours"
        },
        "backlog_processing_limit": 10,
        "business_hours": {
          "end": 18,
          "start": 9,
          "timezone": "America/New_York"
        },
        "elasticsearch": {
          "host": "localhost",
          "index": "ecom-fraud-filter-feed",
          "port": "9200",
          "type": "order_line_item"
        },
        "minimum_match_threshold": "3<80%",
        "result_limit": 10
      },
      "filters_search": {
        "elasticsearch": {
          "port": "9200",
          "host": "localhost",
          "index": "gbr-stage-order-orders-feed",
          "type": "orders"
        }
      },
      "fulfiller": {
        "8": {
          "fulfiller_id": 8,
          "id": 8,
          "name": "Gerp",
          "package_name": "fulfillment-adapter-plugin-gerp",
          "fi_posting_config": {
            "FI_serial_number_range_max": 840000,
            "FI_serial_number_range_min": 830001,
            "FI_timezone": "America/Los_Angeles",
            "advance_received": "21016901",
            "blart": "D0",
            "budget_allocation_business_area": "430A",
            "budget_allocation_cost_center": "C4300062",
            "credit_indicator": "12",
            "currency": "GBP",
            "debit_indicator": "01",
            "employee_number": "5275235",
            "file_ids_list": {
              "file_id": "101",
              "name": "NORMAL ORDER"
            },
            "hkont": "",
            "newko": "1480872",
            "original_business_area": "430A",
            "original_cost_center": "C4300062",
            "payment_gl_config": [
              {
                "hkont": "12415103",
                "newko": "4326288",
                "payment_gateway_name": "paypal"
              },
              {
                "hkont": "12415103",
                "newko": "8386507",
                "payment_gateway_name": "adyen"
              },
              {
                "hkont": "12415103",
                "newko": "1481359",
                "payment_gateway_name": "deko"
              },
              {
                "hkont": "12415103",
                "newko": "7375323",
                "payment_gateway_name": "cod"
              }
            ],
            "payment_terms": "",
            "profit_center": "AZ",
            "sys_id": "0071",
            "zz_job_cat": "FBL"
          }
        }
      },
      "keysAuthSecret": "abc-dummy-xyz",
      "keys_auth_secret": "order-service-secret-code",
      "notification": {
        "default_grouping_time": "0s",
        "grouping_delay_time": {
          "cancellation_failed": "15m",
          "cancellation_succeeded": "15m",
          "line_item_shipped": "15m"
        }
      },
      "notificationServiceAuthSecret": "ahb0aijaith8meiw0ox4yeYohnieveem",
      "offer_redemption_delay": 0,
      "order_status_callback_url": "/v4/_orders/fulfillment-status",
      "partner": {
        "rethinkdb": {
          "db": "EComPartners",
          "host": "localhost",
          "max": 16,
          "min": 4,
          "port": "28015",
          "protocol": "http"
        }
      },
      "payment_max_retry_count": 5,
      "payment_service_appid": "payment-service",
      "payment_service_gbr_auth_secret": "FiDBnIkqdOrcbdlacaddgngFafeFhNdk",
      "payment_sync_delay": 180,
      "refund_sync_delay":  180,
      "payment_update_allowed_window": 28800,
      "po_submission_remorse_period": 1800,
      "postgres": {
        "connection_string_orders": "postgres://ecomdba:test@localhost/ecomorders",
        "connectionstring": "postgres://ecomdba:test@localhost/ecomorders",
        "pool_size": 10
      },
      "pricing_engine_auth_secret": "FiDBnIkqdOrcbdlacaddgngFafeFhNdk",
      "rabbitmq": {
        "heartbeat": 10,
        "host": "localhost",
        "login": "guest",
        "messaging": {
          "bindings": {
            "CancelOrderPaymentFailure": [
              "orders.cancel_order_payment_failure_queue"
            ],
            "CancellationFeeds": [
              "orders.cancellation_feeds_queue"
            ],
            "ExchangeSync": [
              "orders.exchange_sync_queue"
            ],
            "ExternalOrderRefundSettlement": [
              "orders.external_order_refund_settlement_queue"
            ],
            "FraudCheck": [
              "orders.fraud_check_queue"
            ],
            "FraudFilters": [
              "orders.new_fraud_filter_queue"
            ],
            "FulfillmentEvents": [
              "orders.fulfillment_events_queue"
            ],
            "InternalSubmitCart": [
              "orders.internal_submit_cart_queue"
            ],
            "NotificationEvents": [
              "orders.notification_events.events_queue"
            ],
            "OrderCoupons": [
              "orders.coupons_queue"
            ],
            "OrderEPP": [
              "orders.epp_queue"
            ],
            "OrderOffers": [
              "orders.offers_queue"
            ],
            "PaymentFailure": [
              "orders.payment_failure_queue"
            ],
            "PaymentSync": [
              "orders.payment_sync_queue"
            ],
            "DelayNotifications":[
              "orders.delay_notifications_queue"
            ],
            "RefundSync": [
              "orders.refund_sync_queue"
            ],
            "PaymentCapture": [
              "orders.payment_capture_queue"
            ],
            "PaymentRefund": [
              "orders.payment_refund_queue"
            ],
            "ShipmentNotifications": [
              "orders.shipment_notification_queue"
            ],
            "SubmitPO": [
              "orders.submit_po_queue"
            ],
            "TrackingOutput": [
              "dps.shipment_tracking_output_queue"
            ],
            "InsuranceEvents": [
              "orders.insurance_events_queue"
            ],
            "InsuranceEventsFeed": [
              "orders.insurance_events_feed_queue"
            ],
            "Attachments": [
              "dps.attachments_queue"
            ],
            "FiPosting": [
              "orders.fi_posting_queue"
            ]
          },
          "exchanges": {
            "CancelOrderPaymentFailure": {
              "bindQueue": true,
              "name": "orders.cancel_order_payment_failure"
            },
            "CancellationFeeds": {
              "bindQueue": false,
              "name": "dps.bulk_cancellations"
            },
            "CatalogSync": {
              "bindQueue": false,
              "name": "catalog.sku_sync"
            },
            "ExchangeSync": {
              "bindQueue": true,
              "name": "orders.exchange_sync"
            },
            "FraudCheck": {
              "bindQueue": true,
              "name": "gbr.orders.fraud_check"
            },
            "FraudFilters": {
              "bindQueue": true,
              "name": "orders.fraud_filters"
            },
            "FulfillmentEvents": {
              "bindQueue": true,
              "name": "orders.fulfillment_events"
            },
            "NotificationEvents": {
              "bindQueue": false,
              "name": "orders.notification_events"
            },
            "DelayNotifications": {
              "bindQueue": true,
              "name": "orders.delay_notifications"
            },
            "OrderCoupons": {
              "bindQueue": true,
              "name": "orders.coupons"
            },
            "OrderEPP": {
              "bindQueue": true,
              "name": "orders.epp"
            },
            "OrderOffers": {
              "bindQueue": true,
              "name": "orders.offers"
            },
            "PaymentFailure": {
              "bindQueue": true,
              "name": "orders.payment_failure"
            },
            "PaymentSync": {
              "bindQueue": true,
              "name": "orders.payment_sync"
            },
            "RefundSync": {
              "bindQueue": true,
              "name": "gbr.orders.refund_sync"
            },
            "PaymentCapture": {
              "bindQueue": true,
              "name": "gbr.orders.payment_capture"
            },
            "PaymentRefund": {
              "bindQueue": true,
              "name": "gbr.orders.payment_refund"
            },
            "ShipmentNotifications": {
              "bindQueue": true,
              "name": "orders.shipment_notification"
            },
            "ShipmentTrackingFeeds": {
              "bindQueue": false,
              "name": "tracking_info"
            },
            "SubmitPO": {
              "bindQueue": true,
              "name": "orders.submit_po"
            },
            "TrackingInput": {
              "bindQueue": true,
              "name": "orders.shipment_tracking_input"
            },
            "TrackingOutput": {
              "bindQueue": true,
              "name": "dps.shipment_tracking_output"
            },
            "InsuranceEvents": {
              "bindQueue": true,
              "name": "gbr.orders.insurance_events"
            },
            "InsuranceEventsFeed": {
              "bindQueue": true,
              "name": "gbr.orders.insurance_events_feed"
            },
            "Attachments": {
              "bindQueue": true,
              "name": "gbr.dps.attachments"
            },
            "FiPosting": {
              "bindQueue": true,
              "name": "gbr.orders.fi_posting"
            }
          }
        },
        "prefetchCount": 1,
        "prefix": "",
        "priorityInstances": {
          "host1": {
            "exchanges": {
              "DRSubmitCart": {
                "bindQueue": true,
                "name": "orders.dr_submit_cart"
              }
            }
          },
          "host2": {
            "exchanges": {
              "DRSubmitCart": {
                "bindQueue": true,
                "name": "orders.dr_submit_cart"
              }
            }
          }
        }
      },
      "password": "guest",
      "port": 5672,
      "protocol": "amqp"
    },
    "rateLimiterOptions": {
      "orders_cancel": {
        "duration": 60,
        "limit": 5
      },
      "orders_guest_search": {
        "duration": 60,
        "limit": 5
      },
      "replace_order" : {
        "limit" : 5,
        "duration" : 10
      },
      "orders_notification_info": {
        "duration": 60,
        "limit": 3
      },
      "orders_payment": {
        "duration": 60,
        "limit": 3
      },
      "orders_submit": {
        "duration": 600,
        "limit": 10
      }
    },
    "requestTimeout": 120000,
    "requeue_max_retry_count": {
      "FiPosting": 5
    },
    "fetch_address_info_from": "billing_info",
    "mail_to_support": "support@samsungukfinance.zendesk.com",
    "samsung_base_url": "http://gbr-qa1.samsung.com",
    "samsung_my_orders_url": "/in/web/my-orders",
    "samsung_order_payment_url": "/in/web/order-payment/",
    "samsung_order_tracking_url": "/in/web/order-track/<order-id>?lineItemId=<line-item-id>",
    "samsung_orders_lookup_url": "/in/web/search-orders",
    "service_nginx_base_url": "https://ecom-stage.in.samsung.com",
    "sku_swap": {
      "disable_O2O": false,
      "disable_OE": false
    },
    "tenant_id": "GBR",
    "update_shippingInfo": {
      "disable_O2O": false,
      "disable_OE": false
    },
    "attachment_type_s3_folders": {
      "return_label": "return-label",
      "vat_invoice": "vat-invoice",
      "refund_invoice": "refund-invoice"
    },
    "vat_percentage": 0.2,
    "s3": {
      "bucket_name": "eu-stg-gbr-orders",
      "access_key_id": "AKIAJKV3DTNMRDPAUXGA",
      "secret_access_key": "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"
    },
    "es_attachments_index": "gbr-attachments",
    "es_attachments_type": "attachment"
  }
}
