{
    "basic_service_configs": [
      {
        "name": "order-service",
        "server": {
          "instances": [
            {
              "label": "public",
              "port": "4910"
            },
            {
              "label": "private",
              "port": "5010"
            }
          ],
          "logging_file_path": "/var/log/services/dev/",
          "worker": {
            "messaging-worker": {
              "http": {
                "port": "5011"
              }
            }
          }
        }
      }
    ],
    "config_db": {
      "database": "indconfigs",
      "host": "localhost",
      "port": "26257",
      "user": "ecomdba"
    },
    "schema_version": "v4.0.0",
    "tenant_id": "IND",
    "tenant_level_config": {
      "allowed_locales": [
        "zn-cn, en-au"
      ],
      "default_locale": "en-po",
      "service_nginx_base_url": "http://ind-qa1.samsung.com"
    }
  }