{
  "basic_service_configs": [
    {
      "name": "order-service",
      "server": {
        "instances": [
          {
            "label": "public",
            "port": "4910"
          },
          {
            "label": "private",
            "port": "5010"
          }
        ],
        "logging_file_path": "./logs",
        "worker": {
          "messaging-worker": {
            "http": {
              "port": "5011"
            }
          }
        }
      }
    }
  ],
  "config_db": {
    "database": "lvaconfigs",
    "host": "localhost",
    "port": "26257",
    "user": "ecomdba"
  },
  "schema_version": "v4.0.0",
  "tenant_id": "LVA",
  "tenant_level_config": {
    "allowed_locales": [
      "lv-lv",
      "en-us"
    ],
    "default_currency": "EUR",
    "default_locale": "lv",
    "service_nginx_base_url": "http://lva-qa1.samsung.com"
  }
}